module go-airbnb-housing-spa-scrapper

go 1.19

require (
	github.com/chromedp/cdproto v0.0.0-20230203223129-bb3b7fef2b77 // indirect
	github.com/chromedp/chromedp v0.8.7 // indirect
	github.com/chromedp/sysutil v1.0.0 // indirect
	github.com/gobwas/httphead v0.1.0 // indirect
	github.com/gobwas/pool v0.2.1 // indirect
	github.com/gobwas/ws v1.1.0 // indirect
	github.com/josharian/intern v1.0.0 // indirect
	github.com/mailru/easyjson v0.7.7 // indirect
	golang.org/x/net v0.5.0 // indirect
	golang.org/x/sys v0.4.0 // indirect
)
